Informe Acerca del consumo del café en estudiantes UTEC durante el ciclo 2024 - 2
…
La limpieza fue realizada de la siguiente manera:

Se importo el set de datos original y se creo otro solo las variables que son relevantes a nuestro objetivos llamado “DF2”:

df <- read_csv("Café (respuestas) - Respuestas de formulario 1(2).csv", show_col_types = FALSE)
DF2 <- df[, c("En promedio ¿Cuántas tazas de café consumes en un día?", "Si tuvieras que describir tu rendimiento académico cuando consumes café ¿Cómo sería?",
                         "¿Cuál fue tu promedio ponderado en el ciclo 2024-1? (Tal cual aparece en tu intranet de estudiante).",
                         "¿Recibes algún apoyo económico para estudiar UTEC?",
                         "¿Cuánto gastas en café a la semana?",
                         "¿En qué tipo de establecimiento compras café con mayor frecuencia?")]

DF2

# A tibble: 2,047 × 6
   En promedio ¿Cuántas tazas de…¹ Si tuvieras que desc…² ¿Cuál fue tu promedi…³
   <chr>                           <chr>                  <chr>                 
 1 1                               Regular                14.45                 
 2 1                               Regular                14                    
 3 2                               Regular                14.2                  
 4 1                               Excelente              17.46                 
 5 <NA>                            <NA>                   <NA>                  
 6 <NA>                            <NA>                   <NA>                  
 7 <NA>                            <NA>                   <NA>                  
 8 <NA>                            <NA>                   <NA>                  
 9 3                               Excelente              <NA>                  
10 <NA>                            <NA>                   <NA>                  
# ℹ 2,037 more rows
# ℹ abbreviated names:
#   ¹​`En promedio ¿Cuántas tazas de café consumes en un día?`,
#   ²​`Si tuvieras que describir tu rendimiento académico cuando consumes café ¿Cómo sería?`,
#   ³​`¿Cuál fue tu promedio ponderado en el ciclo 2024-1? (Tal cual aparece en tu intranet de estudiante).`
# ℹ 3 more variables:
#   `¿Recibes algún apoyo económico para estudiar UTEC?` <chr>, …

Después, las variables de DF2 fueron cambiadas de nombre para simplificar su uso y entendimiento:

colnames(DF2) <- c("Tazas_por_dia",
                     "Rendimiento_con_cafe", 
                     "Promedio_ponderado_2024_1", 
                     "Apoyo_economico", 
                     "Gasto_semanal_cafe", 
                     "Lugar_compra_cafe")

DF2

# A tibble: 2,047 × 6
   Tazas_por_dia Rendimiento_con_cafe Promedio_ponderado_2024_1 Apoyo_economico
   <chr>         <chr>                <chr>                     <chr>          
 1 1             Regular              14.45                     Ninguno        
 2 1             Regular              14                        Semi-beca      
 3 2             Regular              14.2                      Ninguno        
 4 1             Excelente            17.46                     Semi-beca      
 5 <NA>          <NA>                 <NA>                      Ninguno        
 6 <NA>          <NA>                 <NA>                      Beca           
 7 <NA>          <NA>                 <NA>                      Beca           
 8 <NA>          <NA>                 <NA>                      Ninguno        
 9 3             Excelente            <NA>                      Semi-beca      
10 <NA>          <NA>                 <NA>                      Ninguno        
# ℹ 2,037 more rows
# ℹ 2 more variables: Gasto_semanal_cafe <dbl>, Lugar_compra_cafe <chr>
…
Como vemos tenemos un rango de 0 a 200 (asumiendo que los que gastan 0 preparan su propio café), estando dentro de lo esperado.

Variable 6: Lugar_compra_café

Al igual que la variable 2 y 4, al ser una opción para marcar, esta limpia.

Tabla prolija final y conteo de muestras

Una vez ya limpiado el set de datos de las variables que vamos a usar, nos queda la siguiente tabla prolija.

DF2

# A tibble: 2,047 × 6
   Tazas_por_dia Rendimiento_con_cafe Promedio_ponderado_2024_1 Apoyo_economico
           <dbl> <chr>                                    <dbl> <chr>          
 1             1 Regular                                   14.4 Ninguno        
 2             1 Regular                                   14   Semi-beca      
 3             2 Regular                                   14.2 Ninguno        
 4             1 Excelente                                 17.5 Semi-beca      
 5            NA <NA>                                      NA   Ninguno        
 6            NA <NA>                                      NA   Beca           
 7            NA <NA>                                      NA   Beca           
 8            NA <NA>                                      NA   Ninguno        
 9             3 Excelente                                 NA   Semi-beca      
10            NA <NA>                                      NA   Ninguno        
# ℹ 2,037 more rows
# ℹ 2 more variables: Gasto_semanal_cafe <dbl>, Lugar_compra_cafe <chr>
…
